[gd_scene load_steps=3 format=2]

[ext_resource path="res://CatMan.gd" type="Script" id=1]
[ext_resource path="res://DogMan.gd" type="Script" id=2]

[node name="Main" type="Node"]

[node name="CatMan" type="Node" parent="."]
script = ExtResource( 1 )

[node name="DogMan" type="Node" parent="."]
script = ExtResource( 2 )

